{
  "serviceUrl": "https://b4.example.com:60900",
  "es": {
    "host": "localhost",
    "port": 9200,
    "books_index": "books",
    "bundles_index": "b4"
  },
  "tls": {
    "key": "b4.example.com.key",
    "cert": "b4.example.com.crt"
  },
  "auth": {
    "facebook": {
      "appId": "",
      "appSecret": ""
    }
  }
}